<svg xmlns="http://www.w3.org/2000/svg" width="27" height="21.6" viewBox="0 0 27 21.6">
  <path id="Icon_material-mail" data-name="Icon material-mail" d="M27.3,6H5.7A2.7,2.7,0,0,0,3.013,8.7L3,24.9a2.708,2.708,0,0,0,2.7,2.7H27.3A2.708,2.708,0,0,0,30,24.9V8.7A2.708,2.708,0,0,0,27.3,6Zm0,5.4L16.5,18.15,5.7,11.4V8.7l10.8,6.75L27.3,8.7Z" transform="translate(-3 -6)" fill="#9f63f2"/>
</svg>
