<svg xmlns="http://www.w3.org/2000/svg" width="27" height="27" viewBox="0 0 27 27">
  <path id="Icon_awesome-phone" data-name="Icon awesome-phone" d="M26.018,1.3,20.534.031a1.274,1.274,0,0,0-1.45.733L16.553,6.671a1.262,1.262,0,0,0,.364,1.477l3.2,2.616a19.544,19.544,0,0,1-9.344,9.344l-2.616-3.2a1.264,1.264,0,0,0-1.477-.364L.77,19.079a1.281,1.281,0,0,0-.738,1.455L1.3,26.018A1.265,1.265,0,0,0,2.531,27,24.466,24.466,0,0,0,27,2.531,1.264,1.264,0,0,0,26.018,1.3Z" transform="translate(0.001 0.001)" fill="#9f63f2"/>
</svg>
